COVID-19 Report
…
WY
0.0574567
0.0005100

Table 2: Daily increase cases in each state & Daily increase deaths in each state & Daily ratio of hospitalized currently to positive cases in each state

(Since the second table will be 11634 rows, we will only show part of the date)

## Joining, by = c("date", "state")
## Joining, by = c("date", "state")

## # A tibble: 11,634 x 5
## # Groups:   date [250]
##        date state positive_increase death_increase hospitalized_ratio
##       <int> <chr>             <dbl>          <dbl>              <dbl>
##  1 20200122 MA                    0              0                  0
##  2 20200122 WA                    0              0                  0
##  3 20200123 MA                    0              0                  0
##  4 20200123 WA                    0              0                  0
##  5 20200124 MA                    0              0                  0
##  6 20200124 WA                    0              0                  0
##  7 20200125 MA                    0              0                  0
##  8 20200125 WA                    0              0                  0
##  9 20200126 MA                    0              0                  0
## 10 20200126 WA                    0              0                  0
## #  with 11,624 more rows

Table

In the table, we are interested in the national level of statistic related to COVID-19. Each row will be represent one day. For the columns, we calculate the national total cases, national total deaths and national current hospitalized number. Moreover, we want to know the new increase of each data since the previous data are cumulative. Thus, we add three more columns to calculate the new increases of national cases, national deaths and national current hospitalized number.

(Since the table will be 250 rows, we will only show part of the date)

## # A tibble: 250 x 7
##      date national_total_ national_total_ national_curren national_new_ca
##     <int>            <dbl>            <dbl>            <dbl>            <dbl>
##  1 2.02e7                0                0                0                0
##  2 2.02e7                0                0                0                0
##  3 2.02e7                0                0                0                0
##  4 2.02e7                0                0                0                0
##  5 2.02e7                0                0                0                0
##  6 2.02e7                0                0                0                0
##  7 2.02e7                0                0                0                0
##  8 2.02e7                0                0                0                0
##  9 2.02e7                0                0                0                0
## 10 2.02e7                0                0                0                0
## #  with 240 more rows, and 2 more variables: national_new_deaths <dbl>,
## #   national_new_hospitalized <dbl>
…
